Assembler report for DE1_TOP
Thu Jul 06 23:35:56 2006
Version 6.0 Build 202 06/20/2006 Service Pack 1 SJ Full Version


---------------------
; Table of Contents ;
---------------------
  1. Legal Notice
  2. Assembler Summary
  3. Assembler Settings
  4. Assembler Generated Files
  5. Assembler Device Options: C:/DE1/DE1_TOP/DE1_TOP.sof
  6. Assembler Device Options: C:/DE1/DE1_TOP/DE1_TOP.pof
  7. Assembler Messages



----------------
; Legal Notice ;
----------------
Copyright (C) 1991-2006 Altera Corporation
Your use of Altera Corporation's design tools, logic functions 
and other software and tools, and its AMPP partner logic 
functions, and any output files any of the foregoing 
(including device programming or simulation files), and any 
associated documentation or information are expressly subject 
to the terms and conditions of the Altera Program License 
Subscription Agreement, Altera MegaCore Function License 
Agreement, or other applicable license agreement, including, 
without limitation, that your use is for the sole purpose of 
programming logic devices manufactured by Altera and sold by 
Altera or its authorized distributors.  Please refer to the 
applicable agreement for further details.



+---------------------------------------------------------------+
; Assembler Summary                                             ;
+-----------------------+---------------------------------------+
; Assembler Status      ; Successful - Thu Jul 06 23:35:56 2006 ;
; Revision Name         ; DE1_TOP                               ;
; Top-level Entity Name ; DE1_TOP                               ;
; Family                ; Cyclone II                            ;
; Device                ; EP2C20F484C7                          ;
+-----------------------+---------------------------------------+


+-----------------------------------------------------------------------------------------------------------+
; Assembler Settings                                                                                        ;
+--------------------------------------------------------------------------------+----------+---------------+
; Option                                                                         ; Setting  ; Default Value ;
+--------------------------------------------------------------------------------+----------+---------------+
; Configuration device                                                           ; Epcs4    ; Auto          ;
; Use smart compilation                                                          ; Off      ; Off           ;
; Generate Serial Vector Format File (.svf) for Target Device                    ; Off      ; Off           ;
; Generate a JEDEC STAPL Format File (.jam) for Target Device                    ; Off      ; Off           ;
; Generate an uncompressed Jam STAPL Byte Code 2.0 File (.jbc) for Target Device ; Off      ; Off           ;
; Generate a compressed Jam STAPL Byte Code 2.0 File (.jbc) for Target Device    ; On       ; On            ;
; Generate compressed bitstreams                                                 ; On       ; On            ;
; Compression mode                                                               ; Off      ; Off           ;
; Clock source for configuration device                                          ; Internal ; Internal      ;
; Clock frequency of the configuration device                                    ; 10 MHZ   ; 10 MHz        ;
; Divide clock frequency by                                                      ; 1        ; 1             ;
; JTAG user code for target device                                               ; Ffffffff ; Ffffffff      ;
; JTAG user code for configuration device                                        ; Ffffffff ; Ffffffff      ;
; Configuration device auto user code                                            ; Off      ; Off           ;
; Generate Tabular Text File (.ttf) For Target Device                            ; Off      ; Off           ;
; Generate Raw Binary File (.rbf) For Target Device                              ; Off      ; Off           ;
; Generate Hexadecimal (Intel-Format) Output File (.hexout) for Target Device    ; Off      ; Off           ;
; Hexadecimal Output File start address                                          ; 0        ; 0             ;
; Hexadecimal Output File count direction                                        ; Up       ; Up            ;
; Release clears before tri-states                                               ; Off      ; Off           ;
; Auto-restart configuration after error                                         ; On       ; On            ;
; Maintain Compatibility with All Cyclone II M4K Versions                        ; On       ; On            ;
+--------------------------------------------------------------------------------+----------+---------------+


+----------------------------+
; Assembler Generated Files  ;
+----------------------------+
; File Name                  ;
+----------------------------+
; C:/DE1/DE1_TOP/DE1_TOP.sof ;
; C:/DE1/DE1_TOP/DE1_TOP.pof ;
+----------------------------+


+------------------------------------------------------+
; Assembler Device Options: C:/DE1/DE1_TOP/DE1_TOP.sof ;
+----------------+-------------------------------------+
; Option         ; Setting                             ;
+----------------+-------------------------------------+
; Device         ; EP2C20F484C7                        ;
; JTAG usercode  ; 0xFFFFFFFF                          ;
; Checksum       ; 0x001B51FB                          ;
+----------------+-------------------------------------+


+------------------------------------------------------+
; Assembler Device Options: C:/DE1/DE1_TOP/DE1_TOP.pof ;
+----------------+-------------------------------------+
; Option         ; Setting                             ;
+----------------+-------------------------------------+
; Device         ; EPCS4                               ;
; JTAG usercode  ; 0x00000000                          ;
; Checksum       ; 0x05F0CB7D                          ;
+----------------+-------------------------------------+


+--------------------+
; Assembler Messages ;
+--------------------+
Info: *******************************************************************
Info: Running Quartus II Assembler
    Info: Version 6.0 Build 202 06/20/2006 Service Pack 1 SJ Full Version
    Info: Processing started: Thu Jul 06 23:35:48 2006
Info: Command: quartus_asm --read_settings_files=off --write_settings_files=off DE1_TOP -c DE1_TOP
Info: Writing out detailed assembly data for power analysis
Info: Assembler is generating device programming files
Info: Quartus II Assembler was successful. 0 errors, 0 warnings
    Info: Processing ended: Thu Jul 06 23:35:56 2006
    Info: Elapsed time: 00:00:09


